<?xml version="1.0" encoding="UTF-8"?>
<svg width="25px" height="25px" viewBox="0 0 25 25" version="1.1" xmlns="http://www.w3.org/2000/svg" xmlns:xlink="http://www.w3.org/1999/xlink">
    <!-- Generator: Sketch 55.1 (78136) - https://sketchapp.com -->
    <title>icon-profile</title>
    <desc>Created with Sketch.</desc>
    <g id="Page-1" stroke="none" stroke-width="1" fill="none" fill-rule="evenodd">
        <g id="icon-profile" fill="#9B9B9B">
            <path d="M12.4074074,0 C5.58333333,0 0,5.55882353 0,12.3529412 C0,19.1470588 5.58333333,24.7058824 12.4074074,24.7058824 C19.2314815,24.7058824 24.8148148,19.1470588 24.8148148,12.3529412 C24.8148148,5.55882353 19.2314815,0 12.4074074,0 L12.4074074,0 Z M12.4074074,3.70588235 C14.5166667,3.70588235 16.1296296,5.31176471 16.1296296,7.41176471 C16.1296296,9.51176471 14.5166667,11.1176471 12.4074074,11.1176471 C10.2981481,11.1176471 8.68518519,9.51176471 8.68518519,7.41176471 C8.68518519,5.31176471 10.2981481,3.70588235 12.4074074,3.70588235 L12.4074074,3.70588235 Z M12.4074074,21.2470588 C9.30555556,21.2470588 6.57592593,19.6411765 4.96296296,17.2941176 C4.96296296,14.8235294 9.92592593,13.4647059 12.4074074,13.4647059 C14.8888889,13.4647059 19.8518519,14.8235294 19.8518519,17.2941176 C18.2388889,19.6411765 15.5092593,21.2470588 12.4074074,21.2470588 L12.4074074,21.2470588 Z" id="Shape"></path>
        </g>
    </g>
</svg>